Executing TextProcessing...
0.012
0.012
0.012
0.012
0.012
0.012
0.012
0.012
0.013
0.013
0.012
0.012
0.012
0.012
0.012
0.013
0.013
0.012
0.012
0.012
0.012
0.012
0.012
0.012
0.013
0.013
0.012
0.012
0.012
0.012
0.013
0.012
0.013
0.012
0.012
0.012
0.012
0.012
0.012
0.012
0.012
0.013
0.012
0.012
0.012
0.012
0.012
0.012
0.012
0.013
0.012
0.012
0.012
0.012
0.012
0.012
0.012
0.012
0.012
0.012
0.012
0.013
0.012
0.012
0.012
0.012
0.012
0.012
0.012
0.013
0.012
0.012
0.012
0.013
0.012
0.012
0.012
0.012
0.012
0.012
0.012
0.012
0.012
0.012
0.012
0.012
0.012
0.012
0.012
0.013
0.012
0.012
0.012
0.012
0.012
0.012
0.012
0.012
0.012
0.012
