Executing TextProcessing...
0.015
0.015
0.014
0.013
0.013
0.013
0.014
0.014
0.013
0.013
0.014
0.014
0.014
0.013
0.014
0.014
0.013
0.013
0.014
0.014
0.014
0.013
0.014
0.014
0.014
0.013
0.013
0.015
0.013
0.013
0.014
0.014
0.013
0.013
0.014
0.014
0.014
0.013
0.013
0.014
0.014
0.014
0.014
0.013
0.014
0.014
0.013
0.013
0.014
0.013
0.013
0.014
0.014
0.014
0.014
0.013
0.013
0.014
0.013
0.013
0.014
0.013
0.013
0.014
0.014
0.013
0.014
0.013
0.013
0.014
0.014
0.013
0.014
0.014
0.013
0.014
0.014
0.013
0.014
0.014
0.014
0.014
0.013
0.014
0.014
0.013
0.014
0.014
0.013
0.014
0.014
0.013
0.014
0.013
0.014
0.013
0.013
0.014
0.013
0.014
