Compiling the sample class..
Executing TextProcessing ...
Total Time :0.012
Total Time :0.006
Total Time :0.004
Total Time :0.001
Total Time :0.002
Total Time :0.002
Total Time :0.001
Total Time :0.002
Total Time :0.001
Total Time :0.001
Total Time :0.002
Total Time :0.001
Total Time :0.001
Total Time :0.002
Total Time :0.001
Total Time :0.001
Total Time :0.001
Total Time :0.001
Total Time :0.0
Total Time :0.0
Total Time :0.001
Total Time :0.001
Total Time :0.001
Total Time :0.001
Total Time :0.001
Total Time :0.001
Total Time :0.001
Total Time :0.001
Total Time :0.001
Total Time :0.001
Total Time :0.001
Total Time :0.001
Total Time :0.0
Total Time :0.001
Total Time :0.002
Total Time :0.001
Total Time :0.0
Total Time :0.001
Total Time :0.0
Total Time :0.001
Total Time :0.0
Total Time :0.0
Total Time :0.001
Total Time :0.0
Total Time :0.001
Total Time :0.0
Total Time :0.001
Total Time :0.0
Total Time :0.001
Total Time :0.0
Total Time :0.001
Total Time :0.0
Total Time :0.001
Total Time :0.0
Total Time :0.0
Total Time :0.0
Total Time :0.0
Total Time :0.0
Total Time :0.0
Total Time :0.001
Total Time :0.0
Total Time :0.001
Total Time :0.0
Total Time :0.001
Total Time :0.0
Total Time :0.001
Total Time :0.0
Total Time :0.001
Total Time :0.0
Total Time :0.001
Total Time :0.0
Total Time :0.001
Total Time :0.0
Total Time :0.0
Total Time :0.0
Total Time :0.0
Total Time :0.001
Total Time :0.0
Total Time :0.001
Total Time :0.0
Total Time :0.001
Total Time :0.0
Total Time :0.001
Total Time :0.0
Total Time :0.0
Total Time :0.0
Total Time :0.0
Total Time :0.0
Total Time :0.0
Total Time :0.001
Total Time :0.0
Total Time :0.001
Total Time :0.0
Total Time :0.001
Total Time :0.0
Total Time :0.001
Total Time :0.0
Total Time :0.0
Total Time :0.0
Total Time :0.0
