0:3=Once
5:8=upon
12:15=time
23:26=very
258:261=very
658:661=very
675:678=upon
1673:1676=upon
3090:3093=time
4042:4045=upon
4630:4633=time
5332:5335=very
5646:5649=very
5993:5996=very
6143:6146=very
6450:6453=very
6581:6584=upon
6706:6709=time
7028:7031=upon
7517:7520=very
8378:8381=very
9032:9035=very
10719:10722=time
12586:12589=very
12706:12709=upon
13090:13093=very
13388:13391=very
