Executing TextProcessing...
0.028
0.028
0.026
0.026
0.025
0.025
0.025
0.025
0.023
0.023
0.023
0.024
0.024
0.024
0.024
0.024
0.024
0.024
0.023
0.023
0.023
0.024
0.024
0.024
0.023
0.023
0.024
0.024
0.024
0.024
0.024
0.024
0.028
0.023
0.024
0.023
0.023
0.023
0.023
0.023
0.023
0.024
0.023
0.024
0.023
0.023
0.024
0.024
0.024
0.024
0.024
0.021
0.02
0.02
0.02
0.02
0.02
0.02
0.02
0.02
0.02
0.02
0.02
0.02
0.02
0.021
0.02
0.02
0.02
0.029
0.02
0.019
0.02
0.02
0.02
0.02
0.02
0.02
0.02
0.02
0.02
0.02
0.02
0.021
0.021
0.021
0.021
0.02
0.02
0.02
0.02
0.02
0.021
0.02
0.021
0.021
0.021
0.021
0.021
0.021
