1.454
1.124
1.122
1.122
1.128
1.111
1.117
1.111
1.127
1.11
1.11
1.118
1.111
1.114
1.11
1.111
1.11
1.111
1.124
1.126
1.111
1.11
1.111
1.126
1.11
1.11
1.112
1.11
1.128
1.111
1.111
1.118
1.118
1.112
1.11
1.11
1.114
1.111
1.111
1.117
1.111
1.111
1.111
1.116
1.117
1.11
1.111
1.117
1.114
1.111
1.112
1.11
1.118
1.111
1.111
1.116
1.114
1.117
1.113
1.11
1.11
1.116
1.12
1.11
1.112
1.112
1.112
1.111
1.111
1.116
1.112
1.111
1.117
1.118
1.113
1.11
1.11
1.114
1.118
1.114
1.11
1.113
1.119
1.115
1.122
1.116
1.111
1.111
1.114
1.115
1.11
1.112
1.111
1.111
1.112
1.113
1.111
1.11
1.119
1.111
